Time-varying covariates
…
# Causes *immortal time bias*

---

# Time-varying covariates solve this problem

1. Create a dataset that reflects these changes
2. Fit a usual survival curve
3. Adjust for covariates using a standard Cox model, *adjusting for correlated times within a person*

---

```
## # A tibble: 103 x 3
##    transplant futime fustat
##         <dbl>  <dbl>  <dbl>
##  1          0      0      1
##  2          0      1      1
##  3          0      1      1
##  4          0      1      1
##  5          0      2      1
##  6          0      2      1
##  7          0      2      1
##  8          1      4      1
##  9          0      4      1
## 10          0      5      1
## # … with 93 more rows
```

---

```
## # A tibble: 172 x 5
##       id start  stop transplant event
##    <dbl> <dbl> <dbl> <fct>      <dbl>
##  1     1     0    50 0              1
##  2     2     0     6 0              1
##  3     3     0     1 0              0
##  4     3     1    16 1              1
##  5     4     0    36 0              0
##  6     4    36    39 1              1
##  7     5     0    18 0              1
##  8     6     0     3 0              1
##  9     7     0    51 0              0
## 10     7    51   675 1              1
## # … with 162 more rows
```
…
